{
	"articleMap": {
		"NPR": [
			{
				"author_id": "5392522",
				"id": "1404565096337129472",
				"text": "Plenty of research has found COVID vaccines to be safe and effective.\n\nBut anti-vaccine activists are mischaracterizing government data to imply the shots are dangerous.\n<a href=\"https://t.co/5RbI1ZJROs\" target=\"_blank\" rel=\"noopener noreferrer\">https://t.co/5RbI1ZJROs</a>",
				"sourceName": "NPR"
			},
			{
				"author_id": "5392522",
				"id": "1404440487105269765",
				"text": "The country's largest database for detecting events that might be vaccine side-effects is being mischaracterized and taken out of context by anti-vaccine groups to spread disinformation about COVID shots.\n<a href=\"https://t.co/o6fij3cLgv\" target=\"_blank\" rel=\"noopener noreferrer\">https://t.co/o6fij3cLgv</a>",
				"sourceName": "NPR"
			},
			{
				"author_id": "5392522",
				"id": "1404409489609138178",
				"text": "A new type of COVID-19 vaccine is 100% effective against the original coronavirus strain, and 93% effective against variants, manufacturer Novavax reports. All cases in which variants caused breakthrough infections resulted in mild symptoms. <a href=\"https://t.co/b0K2L3sO9v\" target=\"_blank\" rel=\"noopener noreferrer\">https://t.co/b0K2L3sO9v</a>",
				"sourceName": "NPR"
			},
			{
				"author_id": "5392522",
				"id": "1404217397138100224",
				"text": "The hospital says that nearly all of its roughly 26,000 employees agreed to the policy, but suspended nearly 200 staff members without pay for refusing to comply. <a href=\"https://t.co/2kdjs3UgR5\" target=\"_blank\" rel=\"noopener noreferrer\">https://t.co/2kdjs3UgR5</a>",
				"sourceName": "NPR"
			},
			{
				"author_id": "5392522",
				"id": "1404013693973762049",
				"text": "A new program in Washington state is offering adults a free, pre-rolled joint when they get vaccinated against COVID-19. It's one of several vaccination incentive programs the state has rolled out.\n<a href=\"https://t.co/9jSPLx7s9v\" target=\"_blank\" rel=\"noopener noreferrer\">https://t.co/9jSPLx7s9v</a>",
				"sourceName": "NPR"
			},
			{
				"author_id": "5392522",
				"id": "1403777491005759493",
				"text": "Steven Brandenburg, the admitted conspiracy theorist and ex-pharmacist who intentionally destroyed 500 vaccine doses, was sentenced to 3 years in prison this week. He said in a statement that he felt \"great shame.\"\n<a href=\"https://t.co/COKqeMSwto\" target=\"_blank\" rel=\"noopener noreferrer\">https://t.co/COKqeMSwto</a>",
				"sourceName": "NPR"
			},
			{
				"author_id": "5392522",
				"id": "1403598078482038789",
				"text": "A Houston hospital system suspended 178 workers for not meeting their deadline to get vaccinated against COVID-19.\n\nNow 117 employees have filed a lawsuit, spearheaded by a conservative activist.\n<a href=\"https://t.co/TpVnMAO5mo\" target=\"_blank\" rel=\"noopener noreferrer\">https://t.co/TpVnMAO5mo</a>",
				"sourceName": "NPR"
			},
			{
				"author_id": "5392522",
				"id": "1403581978813898753",
				"text": "The cost of buying a fake vaccine card online — $12.99.\n\nThe cost of actually getting a COVID vaccine and a legitimate vaccination card — free. <a href=\"https://t.co/ae7mdGYrop\" target=\"_blank\" rel=\"noopener noreferrer\">https://t.co/ae7mdGYrop</a>",
				"sourceName": "NPR"
			},
			{
				"author_id": "5392522",
				"id": "1403209401473900546",
				"text": "Johnson &amp; Johnson says U.S. regulators have extended the expiration date on millions of doses of its COVID-19 vaccine by 6 weeks, giving the shots a safe and effective shelf life of at least 4 1/2 months.\n<a href=\"https://t.co/ip9fRWH6UB\" target=\"_blank\" rel=\"noopener noreferrer\">https://t.co/ip9fRWH6UB</a>",
				"sourceName": "NPR"
			}
		],
		"Bloomberg": [],
		"ABC": [
			{
				"author_id": "28785486",
				"id": "1404575075462959104",
				"text": "How the United States' potential fourth vaccine stacks up against existing ones: <a href=\"https://t.co/OdRFgHTgEk\" target=\"_blank\" rel=\"noopener noreferrer\">https://t.co/OdRFgHTgEk</a>",
				"sourceName": "ABC News"
			},
			{
				"author_id": "28785486",
				"id": "1404553089445732354",
				"text": "Vermont crosses major vaccine milestone as more than 80% of the state's eligible population has at least one shot, according to state health department data. <a href=\"https://t.co/Zhv0aOThaX\" target=\"_blank\" rel=\"noopener noreferrer\">https://t.co/Zhv0aOThaX</a>",
				"sourceName": "ABC News"
			},
			{
				"author_id": "28785486",
				"id": "1404528955143643146",
				"text": "Pres. Biden was asked at today's press conference whether he still believed Russian Pres. Vladimir Putin was a \"killer.\"\n\nHe made the comment in an interview with @GStephanopoulos in March. Read more: <a href=\"https://t.co/LB39HqSeeI\" target=\"_blank\" rel=\"noopener noreferrer\">https://t.co/LB39HqSeeI</a>",
				"sourceName": "ABC News"
			},
			{
				"author_id": "28785486",
				"id": "1404450613337935880",
				"text": "A Texas judge dismissed a lawsuit against Houston Methodist Hospital over its policy that mandated all staff needed to be vaccinated against COVID-19 or face suspension. <a href=\"https://t.co/KZRFD9FNdw\" target=\"_blank\" rel=\"noopener noreferrer\">https://t.co/KZRFD9FNdw</a>",
				"sourceName": "ABC News"
			},
			{
				"author_id": "28785486",
				"id": "1404388914039828480",
				"text": "Novavax announces that its experimental COVID-19 vaccine is more than 90% effective against symptomatic disease in late-stage clinical trials. <a href=\"https://t.co/tHzDocz4jT\" target=\"_blank\" rel=\"noopener noreferrer\">https://t.co/tHzDocz4jT</a> <a href=\"https://t.co/KpU20TyZ3x\" target=\"_blank\" rel=\"noopener noreferrer\">https://t.co/KpU20TyZ3x</a>",
				"sourceName": "ABC News"
			},
			{
				"author_id": "28785486",
				"id": "1404380902499684354",
				"text": "JUST IN: American biotechnology company Novavax announces that its experimental COVID-19 vaccine is more than 90% effective against symptomatic disease in late-stage clinical trials. <a href=\"https://t.co/xRcUkvoz2G\" target=\"_blank\" rel=\"noopener noreferrer\">https://t.co/xRcUkvoz2G</a> <a href=\"https://t.co/9R1roh7IQP\" target=\"_blank\" rel=\"noopener noreferrer\">https://t.co/9R1roh7IQP</a>",
				"sourceName": "ABC News"
			},
			{
				"author_id": "28785486",
				"id": "1404326357589430273",
				"text": "New COVID-19 cases are declining across the most of the country, even in some states with vaccine-hesitant populations. <a href=\"https://t.co/IpgHGWDP8i\" target=\"_blank\" rel=\"noopener noreferrer\">https://t.co/IpgHGWDP8i</a>",
				"sourceName": "ABC News"
			},
			{
				"author_id": "28785486",
				"id": "1404107051777810433",
				"text": "A Texas hospital has suspended 178 staff members who refused to get the COVID-19 vaccine despite a mandate for staff to be inoculated by this week. <a href=\"https://t.co/6P1DQumw9S\" target=\"_blank\" rel=\"noopener noreferrer\">https://t.co/6P1DQumw9S</a>",
				"sourceName": "ABC News"
			},
			{
				"author_id": "28785486",
				"id": "1404107051371008000",
				"text": "A CDC advisory panel is set to convene in an emergency meeting next week to discuss reports of heart inflammation in adolescents who received the COVID-19 vaccine. <a href=\"https://t.co/201ZgkvCdW\" target=\"_blank\" rel=\"noopener noreferrer\">https://t.co/201ZgkvCdW</a>",
				"sourceName": "ABC News"
			},
			{
				"author_id": "28785486",
				"id": "1404011670301818882",
				"text": "In May, Pres. Joe Biden set a goal for 70% of U.S. adults to receive at lease one dose of the vaccine by July 4 in the sprint to end the coronavirus crisis. <a href=\"https://t.co/O5BsCRNZHO\" target=\"_blank\" rel=\"noopener noreferrer\">https://t.co/O5BsCRNZHO</a>",
				"sourceName": "ABC News"
			}
		],
		"Slate": [
			{
				"author_id": "15164565",
				"id": "1404543144721539075",
				"text": "All of us are going to get vaccinated one way or the other. <a href=\"https://t.co/OS4v1zFnmN\" target=\"_blank\" rel=\"noopener noreferrer\">https://t.co/OS4v1zFnmN</a>",
				"sourceName": "Slate"
			},
			{
				"author_id": "15164565",
				"id": "1404348654551552001",
				"text": "A small proportion of people believe they are immune because they already had the coronavirus. <a href=\"https://t.co/S775DKjKqQ\" target=\"_blank\" rel=\"noopener noreferrer\">https://t.co/S775DKjKqQ</a>",
				"sourceName": "Slate"
			},
			{
				"author_id": "15164565",
				"id": "1403320561917440004",
				"text": "“There’s a higher percentage of people who are completely inexperienced with traveling on an airplane.” <a href=\"https://t.co/8mAcZgWfHN\" target=\"_blank\" rel=\"noopener noreferrer\">https://t.co/8mAcZgWfHN</a>",
				"sourceName": "Slate"
			}
		],
		"HuffPost": [
			{
				"author_id": "14511951",
				"id": "1404616050256322561",
				"text": "For transplant patients, powerful drugs prevent rejection of their new organs but leave them vulnerable to COVID. <a href=\"https://t.co/ikAqqVUZU9\" target=\"_blank\" rel=\"noopener noreferrer\">https://t.co/ikAqqVUZU9</a>",
				"sourceName": "HuffPost"
			},
			{
				"author_id": "14511951",
				"id": "1404396166108921857",
				"text": "While demand for COVID-19 shots in the U.S. has declined, the need for more vaccines around the world remains critical. <a href=\"https://t.co/YhxLsZzXED\" target=\"_blank\" rel=\"noopener noreferrer\">https://t.co/YhxLsZzXED</a>",
				"sourceName": "HuffPost"
			},
			{
				"author_id": "14511951",
				"id": "1404115348325122051",
				"text": "Texas hospital employees filed suit over the requirement that they get the shot or they'd lose their jobs. <a href=\"https://t.co/8ErxmTDi1c\" target=\"_blank\" rel=\"noopener noreferrer\">https://t.co/8ErxmTDi1c</a>",
				"sourceName": "HuffPost"
			},
			{
				"author_id": "14511951",
				"id": "1403174471117291522",
				"text": "The announcement comes hours after Biden committed to donating 500M shots to help speed the global pandemic's end. <a href=\"https://t.co/EK188cE3Lc\" target=\"_blank\" rel=\"noopener noreferrer\">https://t.co/EK188cE3Lc</a>",
				"sourceName": "HuffPost"
			},
			{
				"author_id": "14511951",
				"id": "1403168597137055745",
				"text": "It comes after an FDA review found the shots remained safe and effective for an extra six weeks. <a href=\"https://t.co/WGBBkM63zv\" target=\"_blank\" rel=\"noopener noreferrer\">https://t.co/WGBBkM63zv</a>",
				"sourceName": "HuffPost"
			}
		]
	},
	"isSearchAll": false,
	"sourceList": [
		{
			"id": "NPR",
			"name": "NPR",
			"url": "https://www.npr.org/",
			"logoUrl": ""
		},
		{
			"id": "Bloomberg",
			"name": "Bloomberg",
			"url": "http://www.bloomberg.com/",
			"logoUrl": ""
		},
		{
			"id": "ABC",
			"name": "ABC News",
			"url": "http://abcnews.go.com/",
			"logoUrl": ""
		},
		{
			"id": "Slate",
			"name": "Slate",
			"url": "https://slate.com/",
			"logoUrl": ""
		},
		{
			"id": "HuffPost",
			"name": "HuffPost",
			"url": "https://www.huffpost.com/",
			"logoUrl": ""
		}
	]
}
