[
	{
		"id": 759251,
		"id_str": "759251",
		"name": "CNN",
		"screen_name": "CNN",
		"location": "",
		"description": "It’s our job to #GoThere & tell the most difficult stories. For breaking news, follow @CNNBRK and download our app https://t.co/ceNBoNi8y6",
		"url": "https://t.co/imGp4Ieixi",
		"entities": {
			"url": {
				"urls": [
					{
						"url": "https://t.co/imGp4Ieixi",
						"expanded_url": "http://www.cnn.com",
						"display_url": "cnn.com",
						"indices": [0, 23]
					}
				]
			},
			"description": {
				"urls": [
					{
						"url": "https://t.co/ceNBoNi8y6",
						"expanded_url": "http://cnn.com/apps",
						"display_url": "cnn.com/apps",
						"indices": [115, 138]
					}
				]
			}
		},
		"protected": false,
		"followers_count": 59945818,
		"friends_count": 1104,
		"listed_count": 156333,
		"created_at": "Fri Feb 09 00:35:02 +0000 2007",
		"favourites_count": 1391,
		"utc_offset": null,
		"time_zone": null,
		"geo_enabled": true,
		"verified": false,
		"statuses_count": 384849,
		"lang": null,
		"status": {
			"created_at": "Tue Sep 27 18:43:57 +0000 2022",
			"id": 1574832230484119553,
			"id_str": "1574832230484119553",
			"text": "1,000 workers who provide food and drinks to travelers at San Francisco International Airport are on strike, seekin… https://t.co/c8ZW6FhtTm",
			"truncated": true,
			"source": "<a href=\"http://www.socialflow.com\" rel=\"nofollow\">SocialFlow</a>",
			"in_reply_to_status_id": null,
			"in_reply_to_status_id_str": null,
			"in_reply_to_user_id": null,
			"in_reply_to_user_id_str": null,
			"in_reply_to_screen_name": null,
			"geo": null,
			"coordinates": null,
			"place": null,
			"contributors": null,
			"is_quote_status": false,
			"retweet_count": 7,
			"favorite_count": 28,
			"favorited": false,
			"retweeted": false,
			"possibly_sensitive": false,
			"lang": "en"
		},
		"contributors_enabled": false,
		"is_translator": false,
		"is_translation_enabled": true,
		"profile_background_color": "323232",
		"profile_background_image_url": "http://abs.twimg.com/images/themes/theme1/bg.png",
		"profile_background_image_url_https": "https://abs.twimg.com/images/themes/theme1/bg.png",
		"profile_background_tile": false,
		"profile_image_url": "http://pbs.twimg.com/profile_images/1278259160644227073/MfCyF7CG_normal.jpg",
		"profile_image_url_https": "https://pbs.twimg.com/profile_images/1278259160644227073/MfCyF7CG_normal.jpg",
		"profile_banner_url": "https://pbs.twimg.com/profile_banners/759251/1664203649",
		"profile_link_color": "004287",
		"profile_sidebar_border_color": "000000",
		"profile_sidebar_fill_color": "EEEEEE",
		"profile_text_color": "000000",
		"profile_use_background_image": false,
		"has_extended_profile": false,
		"default_profile": false,
		"default_profile_image": false,
		"following": false,
		"follow_request_sent": false,
		"notifications": false,
		"translator_type": "regular",
		"withheld_in_countries": []
	},
	{
		"id": 1367206038093656068,
		"id_str": "1367206038093656068",
		"name": "CNN+",
		"screen_name": "CNNplus",
		"location": "",
		"description": "Live Shows. Original Series. Interactive Interviews. Stream all about it now on #CNNPlus.",
		"url": "https://t.co/t8SftRZ9vi",
		"entities": {
			"url": {
				"urls": [
					{
						"url": "https://t.co/t8SftRZ9vi",
						"expanded_url": "https://cnn.it/3Nv7Gar",
						"display_url": "cnn.it/3Nv7Gar",
						"indices": [0, 23]
					}
				]
			},
			"description": {
				"urls": []
			}
		},
		"protected": false,
		"followers_count": 37077,
		"friends_count": 112,
		"listed_count": 219,
		"created_at": "Wed Mar 03 20:12:04 +0000 2021",
		"favourites_count": 511,
		"utc_offset": null,
		"time_zone": null,
		"geo_enabled": false,
		"verified": true,
		"statuses_count": 303,
		"lang": null,
		"status": {
			"created_at": "Thu Apr 21 15:23:18 +0000 2022",
			"id": 1517162065202450432,
			"id_str": "1517162065202450432",
			"text": "@BillWeirCNN 👀👀👀",
			"truncated": false,
			"source": "<a href=\"https://mobile.twitter.com\" rel=\"nofollow\">Twitter Web App</a>",
			"in_reply_to_status_id": 1517092693721198593,
			"in_reply_to_status_id_str": "1517092693721198593",
			"in_reply_to_user_id": 33515703,
			"in_reply_to_user_id_str": "33515703",
			"in_reply_to_screen_name": "BillWeirCNN",
			"geo": null,
			"coordinates": null,
			"place": null,
			"contributors": null,
			"is_quote_status": false,
			"retweet_count": 1,
			"favorite_count": 1,
			"favorited": false,
			"retweeted": false,
			"lang": "und"
		},
		"contributors_enabled": false,
		"is_translator": false,
		"is_translation_enabled": false,
		"profile_background_color": "F5F8FA",
		"profile_background_image_url": null,
		"profile_background_image_url_https": null,
		"profile_background_tile": false,
		"profile_image_url": "http://pbs.twimg.com/profile_images/1475902128459816971/1Ob2C0BD_normal.jpg",
		"profile_image_url_https": "https://pbs.twimg.com/profile_images/1475902128459816971/1Ob2C0BD_normal.jpg",
		"profile_banner_url": "https://pbs.twimg.com/profile_banners/1367206038093656068/1648526525",
		"profile_link_color": "1DA1F2",
		"profile_sidebar_border_color": "C0DEED",
		"profile_sidebar_fill_color": "DDEEF6",
		"profile_text_color": "333333",
		"profile_use_background_image": true,
		"has_extended_profile": true,
		"default_profile": true,
		"default_profile_image": false,
		"following": false,
		"follow_request_sent": false,
		"notifications": false,
		"translator_type": "none",
		"withheld_in_countries": []
	}
]
