{
	"ABC News": false,
	"The American Conservative": false,
	"Associated Press": true,
	"Axios": true,
	"BBC News": true,
	"Bloomberg": true,
	"Breitbart News": true,
	"CBS News": true,
	"CNN": true,
	"Christian Science Monitor": true,
	"The Dispatch": false,
	"The Federalist": false,
	"Forbes": true,
	"Fox News": true,
	"The Guardian": true,
	"The Hill": true,
	"HuffPost": true,
	"MSNBC": true,
	"National Review": true,
	"NewsNation": true,
	"NBC News": true,
	"New York Post": true,
	"New York Times": true,
	"Newsmax": true,
	"Newsweek": true,
	"NPR": true,
	"One America News Network": false,
	"Politico": true,
	"Reason": true,
	"Reuters": true,
	"Slate": true,
	"USA TODAY": false,
	"Vox": true,
	"Wall Street Journal": true,
	"Washington Examiner": true,
	"Washington Post": true,
	"Washington Times": true
}
